<?xml version="1.0" encoding="utf-8"?>
<!-- Generator: Adobe Illustrator 19.2.1, SVG Export Plug-In . SVG Version: 6.00 Build 0)  -->
<svg version="1.1" xmlns="http://www.w3.org/2000/svg" xmlns:xlink="http://www.w3.org/1999/xlink" x="0px" y="0px"
	 viewBox="0 0 77 85.3" style="enable-background:new 0 0 77 85.3;" xml:space="preserve">
<style type="text/css">
	.st0{fill:#F5F5F5;}
	.st1{fill:#FFFFFF;}
	.st2{fill:none;stroke:#414042;stroke-width:0.5;stroke-miterlimit:10;}
	.st3{fill:#666666;}
	.st4{fill:#414042;}
	.st5{fill:none;stroke:#FFFFFF;stroke-miterlimit:10;}
	.st6{fill:none;stroke:#414042;stroke-width:0.25;stroke-miterlimit:10;}
	.st7{fill:none;stroke:#2B388F;stroke-width:0.691;stroke-miterlimit:10;}
	.st8{fill:#E9E9E9;}
	.st9{fill:#525154;stroke:#525154;stroke-miterlimit:10;}
	.st10{fill:#1A1A1A;}
	.st11{fill:#2B388F;}
	.st12{opacity:0.7;}
	.st13{fill:#F2F2F2;}
	.st14{fill:url(#SVGID_1_);}
	.st15{fill:#1B75BB;}
	.st16{fill:url(#SVGID_2_);}
	.st17{fill:#929497;}
	.st18{fill:none;}
	.st19{opacity:0.4;fill:#1B75BB;}
	.st20{opacity:0.5;fill:#1B75BB;}
	.st21{opacity:0.25;}
	.st22{opacity:0.35;}
	.st23{fill:url(#SVGID_3_);}
	.st24{fill:url(#SVGID_4_);}
	.st25{fill:#D1D3D4;}
	.st26{fill:#444444;}
	.st27{fill:#3464A7;}
	.st28{fill:none;stroke:#2B388F;stroke-width:3;stroke-miterlimit:10;}
	.st29{fill:none;stroke:#FFFFFF;stroke-width:3;stroke-miterlimit:10;}
	.st30{fill:none;stroke:#1B75BB;stroke-width:3;stroke-miterlimit:10;}
	.st31{fill:#333333;}
	.st32{fill:#999999;}
</style>
<g id="Background">
</g>
<g id="Guides">
</g>
<g id="Miscellaneous">
</g>
<g id="UI_Elements">
</g>
<g id="Form_Elements">
</g>
<g id="Iconography">
	<g>
		<rect x="2.7" y="1.8" class="st5" width="71.5" height="81.7"/>
		<g>
			<path class="st1" d="M52.4,72l-7.5-13c-3.1-5-5-8.2-6.8-11.6h-0.2c-1.7,3.4-3.3,6.5-6.4,11.7L24.5,72h-8.7l18-29.7l-17.3-29h8.8
				L33.1,27c2.2,3.8,3.8,6.8,5.4,9.9h0.3c1.7-3.5,3.1-6.2,5.3-9.9l8-13.8h8.7L42.9,41.9L61.2,72H52.4z"/>
		</g>
	</g>
</g>
<g id="Buttons">
</g>
<g id="Typography">
</g>
<g id="Colors">
</g>
<g id="_x5B_Insert_Name_x5D__Style_Guide">
</g>
</svg>
