<?xml version="1.0" encoding="utf-8"?>
<!-- Generator: Adobe Illustrator 19.2.1, SVG Export Plug-In . SVG Version: 6.00 Build 0)  -->
<svg version="1.1" xmlns="http://www.w3.org/2000/svg" xmlns:xlink="http://www.w3.org/1999/xlink" x="0px" y="0px"
	 viewBox="0 0 96.7 82.5" style="enable-background:new 0 0 96.7 82.5;" xml:space="preserve">
<style type="text/css">
	.st0{fill:#F5F5F5;}
	.st1{fill:#FFFFFF;}
	.st2{fill:none;stroke:#414042;stroke-width:0.5;stroke-miterlimit:10;}
	.st3{fill:#666666;}
	.st4{fill:#414042;}
	.st5{fill:none;stroke:#FFFFFF;stroke-miterlimit:10;}
	.st6{fill:none;stroke:#414042;stroke-width:0.25;stroke-miterlimit:10;}
	.st7{fill:none;stroke:#2B388F;stroke-width:0.691;stroke-miterlimit:10;}
	.st8{fill:#E9E9E9;}
	.st9{fill:#525154;stroke:#525154;stroke-miterlimit:10;}
	.st10{fill:#1A1A1A;}
	.st11{fill:#2B388F;}
	.st12{opacity:0.7;}
	.st13{fill:#F2F2F2;}
	.st14{fill:url(#SVGID_1_);}
	.st15{fill:#1B75BB;}
	.st16{fill:url(#SVGID_2_);}
	.st17{fill:#929497;}
	.st18{fill:none;}
	.st19{opacity:0.4;fill:#1B75BB;}
	.st20{opacity:0.5;fill:#1B75BB;}
	.st21{opacity:0.25;}
	.st22{opacity:0.35;}
	.st23{fill:url(#SVGID_3_);}
	.st24{fill:url(#SVGID_4_);}
	.st25{fill:#D1D3D4;}
	.st26{fill:#444444;}
	.st27{fill:#3464A7;}
	.st28{fill:none;stroke:#2B388F;stroke-width:3;stroke-miterlimit:10;}
	.st29{fill:none;stroke:#FFFFFF;stroke-width:3;stroke-miterlimit:10;}
	.st30{fill:none;stroke:#1B75BB;stroke-width:3;stroke-miterlimit:10;}
	.st31{fill:#333333;}
	.st32{fill:#999999;}
</style>
<g id="Background">
</g>
<g id="Guides">
</g>
<g id="Miscellaneous">
</g>
<g id="UI_Elements">
</g>
<g id="Form_Elements">
</g>
<g id="Iconography">
	<g>
		<g>
			<path class="st11" d="M15.1,1.2l-12.5,4V19l9.6-11.4c0,0,3-4.1,7.5,0.6l3.1-3.4C22.8,4.8,18.6-0.2,15.1,1.2z"/>
			<path class="st11" d="M31,20l-5.3-7.1v0l0,0l0,0v0L20.4,20c0,0-3.3,6.3,5.3,7.8l0,0l0,0l0,0l0,0C34.3,26.3,31,20,31,20z"/>
		</g>
		<path class="st11" d="M85,4.6l-3.6,1.3L63.3,29l-43.2,5.3c-11,4.3-1,16.3-1,16.3v3.7h-3.9V58l6.9,1.1c-0.5,1.6-0.8,3.4-0.8,5.2
			c0,9.5,7.7,17.3,17.3,17.3c9.5,0,17.3-7.7,17.3-17.3c0,0,0-0.1,0-0.1l38.1-1.5V29.9H70L85.3,8.9h8.8V4.6H85z M38.7,74.3
			c-5.5,0-10-4.5-10-10c0-5.5,4.5-10,10-10c5.5,0,10,4.5,10,10C48.7,69.8,44.2,74.3,38.7,74.3z"/>
		<g>
			<polygon class="st11" points="61.3,31.1 31.6,3.3 35.1,3.3 65.3,26.9 			"/>
		</g>
	</g>
</g>
<g id="Buttons">
</g>
<g id="Typography">
</g>
<g id="Colors">
</g>
<g id="_x5B_Insert_Name_x5D__Style_Guide">
</g>
</svg>
