<?xml version="1.0" encoding="utf-8"?>
<!-- Generator: Adobe Illustrator 19.2.1, SVG Export Plug-In . SVG Version: 6.00 Build 0)  -->
<svg version="1.1" xmlns="http://www.w3.org/2000/svg" xmlns:xlink="http://www.w3.org/1999/xlink" x="0px" y="0px"
	 viewBox="0 0 77.3 82.5" style="enable-background:new 0 0 77.3 82.5;" xml:space="preserve">
<style type="text/css">
	.st0{fill:#F5F5F5;}
	.st1{fill:#FFFFFF;}
	.st2{fill:none;stroke:#414042;stroke-width:0.5;stroke-miterlimit:10;}
	.st3{fill:#666666;}
	.st4{fill:#414042;}
	.st5{fill:none;stroke:#FFFFFF;stroke-miterlimit:10;}
	.st6{fill:none;stroke:#414042;stroke-width:0.25;stroke-miterlimit:10;}
	.st7{fill:none;stroke:#2B388F;stroke-width:0.691;stroke-miterlimit:10;}
	.st8{fill:#E9E9E9;}
	.st9{fill:#525154;stroke:#525154;stroke-miterlimit:10;}
	.st10{fill:#1A1A1A;}
	.st11{fill:#2B388F;}
	.st12{opacity:0.7;}
	.st13{fill:#F2F2F2;}
	.st14{fill:url(#SVGID_1_);}
	.st15{fill:#1B75BB;}
	.st16{fill:url(#SVGID_2_);}
	.st17{fill:#929497;}
	.st18{fill:none;}
	.st19{opacity:0.4;fill:#1B75BB;}
	.st20{opacity:0.5;fill:#1B75BB;}
	.st21{opacity:0.25;}
	.st22{opacity:0.35;}
	.st23{fill:url(#SVGID_3_);}
	.st24{fill:url(#SVGID_4_);}
	.st25{fill:#D1D3D4;}
	.st26{fill:#444444;}
	.st27{fill:#3464A7;}
	.st28{fill:none;stroke:#2B388F;stroke-width:3;stroke-miterlimit:10;}
	.st29{fill:none;stroke:#FFFFFF;stroke-width:3;stroke-miterlimit:10;}
	.st30{fill:none;stroke:#1B75BB;stroke-width:3;stroke-miterlimit:10;}
	.st31{fill:#333333;}
	.st32{fill:#999999;}
</style>
<g id="Background">
</g>
<g id="Guides">
</g>
<g id="Miscellaneous">
</g>
<g id="UI_Elements">
</g>
<g id="Form_Elements">
</g>
<g id="Iconography">
	<path class="st11" d="M49.9,16.7l1.3-2.4l-2.8-1.4l2-2.6L44,6.3l-1.9,3.4l-1.9-1l-0.8,1.4c-16-8.7-24.6-6.7-26.7-4.3
		c0,0,10.2,4.3,23,11l-5.2,9.3l1.8,1.1L4.9,75.3l6.1,3.5l27.5-48.1l2.9,1.7l5.2-9.6c9.2,5.3,18.6,11.4,25.9,17.8
		C72.4,40.7,68.4,29.8,49.9,16.7z"/>
</g>
<g id="Buttons">
</g>
<g id="Typography">
</g>
<g id="Colors">
</g>
<g id="_x5B_Insert_Name_x5D__Style_Guide">
</g>
</svg>
